{
  "name": "categories",
  "base": "PersistedModel",
  "idInjection": true,
  "options": {
    "validateUpsert": true,
    "strictObjectIDCoercion": true
  },
  "properties": {
    "cat_name": {
      "type": "string"
    },
    "cat_code": {
      "type": "string"
    },
    "cat_slug": {
      "type": "string"
    },
    "cat_short_description": {
      "type": "string"
    },
    "cat_description": {
      "type": "string"
    },
    "cat_image": {
      "type": "object"
    },
    "cat_meta_data": {
      "type": "object"
    },
    "priority": {
      "type": "number"
    },
    "is_active": {
      "type": "number"
    },
    "created_by": {
      "type": "object"
    },
    "updated_by": {
      "type": "object"
    },
    "created_at": {
      "type": "date",
      "defaultFn": "now"
    },
    "updated_at": {
      "type": "date",
      "defaultFn": "now"
    }
  },
  "validations": [],
  "relations": {
    "Products": {
      "type": "hasMany",
      "model": "products",
      "foreignKey": "product_cat.cat_id"
    }
  },
  "acls": [],
  "methods": {}
}
