{
  "name": "countries",
  "base": "PersistedModel",
  "idInjection": true,
  "options": {
    "validateUpsert": true
  },
  "properties": {
    "_id": {
      "type": "string",
      "id": true
    },
    "country_name": {
      "type": "string"
    },
    "country_code": {
      "type": "string"
    },
    "country_slug": {
      "type": "string"
    },
    "country_currency":{
      "type": "string"
    },
    "currency":{
      "type": "string"
    },
    "is_active":{
      "type": "number"
    },
    "created_by":{
      "type": "object"
    }
  },
  "validations": [],
  "relations": {},
  "acls": [],
  "methods": {}
}
