{
  "name": "home_bottom_slides",
  "base": "PersistedModel",
  "idInjection": true,
  "options": {
    "validateUpsert": true
  },
  "properties": {
    "id": {
      "type": "number"
    },
    "title": {
      "type": "string"
    },
    "description": {
      "type": "string"
    },
    "images": {
      "type": [
        "string"
      ]
    },
    "background_image": {
      "type": "string"
    },
    "is_active": {
      "type": "number"
    },
    "created_by": {
      "type": "object"
    },
    "updated_by": {
      "type": "object"
    },
    "created_at": {
      "type": "date",
      "defaultFn": "now"
    },
    "updated_at": {
      "type": "date",
      "defaultFn": "now"
    }
  },
  "validations": [],
  "relations": {},
  "acls": [],
  "methods": {}
}
