{
  "name": "site_employees",
  "base": "PersistedModel",
  "idInjection": true,
  "options": {
    "validateUpsert": true
  },
  "properties": {
    "id": {
      "type": "string"
    },
    "emp_name": {
      "type": "string"
    },
    "emp_email": {
      "type": "string"
    },
    "emp_code": {
      "type": "string"
    },
    "emp_mobile": {
      "type": "string"
    },
    "emp_gender": {
      "type": "string"
    },
    "password": {
      "type": "string"
    },
    "emp_dob": {
      "type": "string"
    },
    "emp_blood_group": {
      "type": "string"
    },
    "emp_joining_date": {
      "type": "date"
    },
    "emp_relieving_date": {
      "type": "date"
    },
    "master_roles_id": {
      "type": "string"
    },
    "role_name": {
      "type": "string"
    },
    "is_active": {
      "type": "number"
    },
    "created_by": {
      "type": "object"
    },
    "updated_by": {
      "type": "object"
    },
    "created_at": {
      "type": "date"
    },
    "updated_at": {
      "type": "date"
    }
  },
  "validations": [],
  "relations": {},
  "acls": [],
  "methods": {}
}
