{
  "name": "user_has_packages",
  "base": "PersistedModel",
  "idInjection": true,
  "options": {
    "validateUpsert": true
  },
  "properties": {
    "id": {
      "type": "number"
    },
    "user_id": {
      "type": "number"
    },
    "user_name": {
      "type": "string"
    },
    "package_id": {
      "type": "string"
    },
    "package_slug": {
      "type": "string"
    },
    "package_name": {
      "type": "string"
    },
    "package_total": {
      "type": "number"
    },
    "package_tax": {
      "type": "number"
    },
    "discount_percentage": {
      "type": "string"
    },
    "discount_amount": {
      "type": "number"
    },
    "master_coupons_id": {
      "type": "number"
    },
    "coupon_code": {
      "type": "string"
    },
    "coupon_amount": {
      "type": "number"
    },
    "total_tax": {
      "type": "number"
    },
    "grand_total": {
      "type": "number"
    },
    "user_address_id": {
      "type": "number"
    },
    "package_cycle": {
      "type": "string"
    },
    "package_actual_count": {
      "type": "number"
    },
    "delivery_start_date": {
      "type": "date"
    },
    "delivered_count": {
      "type": "number"
    },
    "payments_id": {
      "type": "number"
    },
    "payment_name": {
      "type": "string"
    },
    "status_id": {
      "type": "number"
    },
    "status_name": {
      "type": "string"
    },
    "is_active": {
      "type": "number"
    },
    "created_at": {
      "type": "date"
    },
    "updated_at": {
      "type": "date"
    }
  },
  "validations": [],
  "relations": {},
  "acls": [],
  "methods": {}
}
