{
  "name": "zipcode_vs_deliverycharge",
  "base": "PersistedModel",
  "idInjection": true,
  "options": {
    "validateUpsert": true
  },
  "properties": {
    "zip_code": {
      "type": "number"
    },
    "delivery_charge": {
      "type": "number"
    },
    "created_at": {
      "type": "date",
      "defaultFn": "now"
    },
    "updated_at": {
      "type": "date",
      "defaultFn": "now"
    }
  },
  "validations": [],
  "relations": {},
  "acls": [],
  "methods": {}
}
